Factors of Alcoholism
…
```
##         Length Class  Mode
## actions 1      -none- list
## fit     5      _lm    list
```

```r
student_por_train_pred <- predict(student_por_pred_fit, student_por_pred_train) %>%
  bind_cols(student_por_pred_train %>% select(Talc))

student_por_train_pred
```

```
## # A tibble: 487 x 2
##    .pred  Talc
##    <dbl> <dbl>
##  1  1.49  1   
##  2  1.36  1   
##  3  1.41  2.29
##  4  1.06  1.29
##  5  1.69  1.29
##  6  1.98  1   
##  7  1.40  1   
##  8  1.47  1   
##  9  1.19  1.29
## 10  1.80  1.57
## # … with 477 more rows
```
…
